…
glm_or <- glm_all %>%
  mutate(OR = exp(estimate), 
         OR_conf.low = exp(conf.low), 
         OR_conf.high = exp(conf.high)) %>%
  dplyr::select(city_state, term, OR, OR_conf.low, OR_conf.high, p.value) %>%
  filter(term == "victim_sexMale") 

glm_or
```

    ## # A tibble: 47 × 6
    ## # Groups:   city_state [47]
    ##    city_state      term              OR OR_conf.low OR_conf.high  p.value
    ##    <chr>           <chr>          <dbl>       <dbl>        <dbl>    <dbl>
    ##  1 Albuquerque, NM victim_sexMale 1.77        0.825        3.76  1.39e- 1
    ##  2 Atlanta, GA     victim_sexMale 1.00        0.680        1.46  1.00e+ 0
    ##  3 Baltimore, MD   victim_sexMale 0.426       0.324        0.558 6.26e-10
    ##  4 Baton Rouge, LA victim_sexMale 0.381       0.204        0.684 1.65e- 3
    ##  5 Birmingham, AL  victim_sexMale 0.870       0.571        1.31  5.11e- 1
    ##  6 Boston, MA      victim_sexMale 0.667       0.351        1.26  2.12e- 1
    ##  7 Buffalo, NY     victim_sexMale 0.521       0.288        0.936 2.90e- 2
    ##  8 Charlotte, NC   victim_sexMale 0.884       0.551        1.39  6.00e- 1
    ##  9 Chicago, IL     victim_sexMale 0.410       0.336        0.501 1.86e-18
    ## 10 Cincinnati, OH  victim_sexMale 0.400       0.231        0.667 6.49e- 4
    ## # … with 37 more rows
…
